%!PS-Adobe-3.0 EPSF-3.0
%%Title: S:\CPGE_SI\Prof\ATS 2018-19\Colle\Colles 5 SLCI\temporel.eps
%%Creator: matplotlib version 1.0.1, http://matplotlib.sourceforge.net/
%%CreationDate: Thu Dec 20 17:18:39 2018
%%Orientation: portrait
%%BoundingBox: 126 306 485 486
%%EndComments
%%BeginProlog
/mpldict 8 dict def
mpldict begin
/m { moveto } bind def
/l { lineto } bind def
/r { rlineto } bind def
/c { curveto } bind def
/cl { closepath } bind def
/box {
m
1 index 0 r
0 exch r
neg 0 r
cl
} bind def
/clipbox {
box
clip
newpath
} bind def
%!PS-Adobe-3.0 Resource-Font
%%Title: Bitstream Vera Sans
%%Copyright: Copyright (c) 2003 by Bitstream, Inc. All Rights Reserved.
%%Creator: Converted from TrueType to type 3 by PPR
25 dict begin
/_d{bind def}bind def
/_m{moveto}_d
/_l{lineto}_d
/_cl{closepath eofill}_d
/_c{curveto}_d
/_sc{7 -1 roll{setcachedevice}{pop pop pop pop pop pop}ifelse}_d
/_e{exec}_d
/FontName /BitstreamVeraSans-Roman def
/PaintType 0 def
/FontMatrix[.001 0 0 .001 0 0]def
/FontBBox[-182 -235 1287 928]def
/FontType 3 def
/Encoding [ /space /parenleft /parenright /period /zero /one /two /four /five /six /eight /nine /s /t ] def
/FontInfo 10 dict dup begin
/FamilyName (Bitstream Vera Sans) def
/FullName (Bitstream Vera Sans) def
/Notice (Copyright (c) 2003 by Bitstream, Inc. All Rights Reserved. Bitstream Vera is a trademark of Bitstream, Inc.) def
/Weight (Roman) def
/Version (Release 1.10) def
/ItalicAngle 0.0 def
/isFixedPitch false def
/UnderlinePosition -213 def
/UnderlineThickness 143 def
end readonly def
/CharStrings 14 dict dup begin
/space{318 0 0 0 0 0 _sc
}_d
/parenleft{390 0 86 -131 310 759 _sc
310 759 _m
266 683 234 609 213 536 _c
191 463 181 389 181 314 _c
181 238 191 164 213 91 _c
234 17 266 -56 310 -131 _c
232 -131 _l
183 -54 146 20 122 94 _c
98 168 86 241 86 314 _c
86 386 98 459 122 533 _c
146 607 182 682 232 759 _c
310 759 _l
_cl}_d
/parenright{390 0 80 -131 304 759 _sc
80 759 _m
158 759 _l
206 682 243 607 267 533 _c
291 459 304 386 304 314 _c
304 241 291 168 267 94 _c
243 20 206 -54 158 -131 _c
80 -131 _l
123 -56 155 17 177 91 _c
198 164 209 238 209 314 _c
209 389 198 463 177 536 _c
155 609 123 683 80 759 _c
_cl}_d
/period{318 0 107 0 210 124 _sc
107 124 _m
210 124 _l
210 0 _l
107 0 _l
107 124 _l
_cl}_d
/zero{636 0 66 -13 570 742 _sc
318 664 _m
267 664 229 639 203 589 _c
177 539 165 464 165 364 _c
165 264 177 189 203 139 _c
229 89 267 64 318 64 _c
369 64 407 89 433 139 _c
458 189 471 264 471 364 _c
471 464 458 539 433 589 _c
407 639 369 664 318 664 _c
318 742 _m
399 742 461 709 505 645 _c
548 580 570 486 570 364 _c
570 241 548 147 505 83 _c
461 19 399 -13 318 -13 _c
236 -13 173 19 130 83 _c
87 147 66 241 66 364 _c
66 486 87 580 130 645 _c
173 709 236 742 318 742 _c
_cl}_d
/one{636 0 110 0 544 729 _sc
124 83 _m
285 83 _l
285 639 _l
110 604 _l
110 694 _l
284 729 _l
383 729 _l
383 83 _l
544 83 _l
544 0 _l
124 0 _l
124 83 _l
_cl}_d
/two{{636 0 73 0 536 742 _sc
192 83 _m
536 83 _l
536 0 _l
73 0 _l
73 83 _l
110 121 161 173 226 239 _c
290 304 331 346 348 365 _c
380 400 402 430 414 455 _c
426 479 433 504 433 528 _c
433 566 419 598 392 622 _c
365 646 330 659 286 659 _c
255 659 222 653 188 643 _c
154 632 117 616 78 594 _c
78 694 _l
118 710 155 722 189 730 _c
223 738 255 742 284 742 _c
359 742 419 723 464 685 _c
509 647 532 597 532 534 _c
532 504 526 475 515 449 _c
504 422 484 390 454 354 _c
446 344 420 317 376 272 _c
332 227 271 164 192 83 _c
_cl}_e}_d
/four{636 0 49 0 580 729 _sc
378 643 _m
129 254 _l
378 254 _l
378 643 _l
352 729 _m
476 729 _l
476 254 _l
580 254 _l
580 172 _l
476 172 _l
476 0 _l
378 0 _l
378 172 _l
49 172 _l
49 267 _l
352 729 _l
_cl}_d
/five{{636 0 77 -13 549 729 _sc
108 729 _m
495 729 _l
495 646 _l
198 646 _l
198 467 _l
212 472 227 476 241 478 _c
255 480 270 482 284 482 _c
365 482 429 459 477 415 _c
525 370 549 310 549 234 _c
549 155 524 94 475 51 _c
426 8 357 -13 269 -13 _c
238 -13 207 -10 175 -6 _c
143 -1 111 6 77 17 _c
77 116 _l
106 100 136 88 168 80 _c
199 72 232 69 267 69 _c
323 69 368 83 401 113 _c
433 143 450 183 450 234 _c
450 284 433 324 401 354 _c
368 384 323 399 267 399 _c
241 399 214 396 188 390 _c
162 384 135 375 108 363 _c
108 729 _l
_cl}_e}_d
/six{{636 0 70 -13 573 742 _sc
330 404 _m
286 404 251 388 225 358 _c
199 328 186 286 186 234 _c
186 181 199 139 225 109 _c
251 79 286 64 330 64 _c
374 64 409 79 435 109 _c
461 139 474 181 474 234 _c
474 286 461 328 435 358 _c
409 388 374 404 330 404 _c
526 713 _m
526 623 _l
501 635 476 644 451 650 _c
425 656 400 659 376 659 _c
310 659 260 637 226 593 _c
192 549 172 482 168 394 _c
187 422 211 444 240 459 _c
269 474 301 482 336 482 _c
409 482 467 459 509 415 _c
551 371 573 310 573 234 _c
573 159 550 99 506 54 _c
462 9 403 -13 330 -13 _c
246 -13 181 19 137 83 _c
92 147 70 241 70 364 _c
70 479 97 571 152 639 _c
206 707 280 742 372 742 _c
}_e{396 742 421 739 447 735 _c
472 730 498 723 526 713 _c
_cl}_e}_d
/eight{{636 0 68 -13 568 742 _sc
318 346 _m
271 346 234 333 207 308 _c
180 283 167 249 167 205 _c
167 161 180 126 207 101 _c
234 76 271 64 318 64 _c
364 64 401 76 428 102 _c
455 127 469 161 469 205 _c
469 249 455 283 429 308 _c
402 333 365 346 318 346 _c
219 388 _m
177 398 144 418 120 447 _c
96 476 85 511 85 553 _c
85 611 105 657 147 691 _c
188 725 245 742 318 742 _c
390 742 447 725 489 691 _c
530 657 551 611 551 553 _c
551 511 539 476 515 447 _c
491 418 459 398 417 388 _c
464 377 501 355 528 323 _c
554 291 568 251 568 205 _c
568 134 546 80 503 43 _c
459 5 398 -13 318 -13 _c
237 -13 175 5 132 43 _c
89 80 68 134 68 205 _c
68 251 81 291 108 323 _c
134 355 171 377 219 388 _c
}_e{183 544 _m
183 506 194 476 218 455 _c
242 434 275 424 318 424 _c
360 424 393 434 417 455 _c
441 476 453 506 453 544 _c
453 582 441 611 417 632 _c
393 653 360 664 318 664 _c
275 664 242 653 218 632 _c
194 611 183 582 183 544 _c
_cl}_e}_d
/nine{{636 0 63 -13 566 742 _sc
110 15 _m
110 105 _l
134 93 159 84 185 78 _c
210 72 235 69 260 69 _c
324 69 374 90 408 134 _c
442 178 462 244 468 334 _c
448 306 424 284 396 269 _c
367 254 335 247 300 247 _c
226 247 168 269 126 313 _c
84 357 63 417 63 494 _c
63 568 85 628 129 674 _c
173 719 232 742 306 742 _c
390 742 455 709 499 645 _c
543 580 566 486 566 364 _c
566 248 538 157 484 89 _c
429 21 356 -13 264 -13 _c
239 -13 214 -10 189 -6 _c
163 -2 137 5 110 15 _c
306 324 _m
350 324 385 339 411 369 _c
437 399 450 441 450 494 _c
450 546 437 588 411 618 _c
385 648 350 664 306 664 _c
262 664 227 648 201 618 _c
175 588 162 546 162 494 _c
}_e{162 441 175 399 201 369 _c
227 339 262 324 306 324 _c
_cl}_e}_d
/s{{521 0 54 -13 472 560 _sc
443 531 _m
443 446 _l
417 458 391 468 364 475 _c
336 481 308 485 279 485 _c
234 485 200 478 178 464 _c
156 450 145 430 145 403 _c
145 382 153 366 169 354 _c
185 342 217 330 265 320 _c
296 313 _l
360 299 405 279 432 255 _c
458 230 472 195 472 151 _c
472 100 452 60 412 31 _c
372 1 316 -13 246 -13 _c
216 -13 186 -10 154 -5 _c
122 0 89 8 54 20 _c
54 113 _l
87 95 120 82 152 74 _c
184 65 216 61 248 61 _c
290 61 323 68 346 82 _c
368 96 380 117 380 144 _c
380 168 371 187 355 200 _c
339 213 303 226 247 238 _c
216 245 _l
160 257 119 275 95 299 _c
70 323 58 356 58 399 _c
58 450 76 490 112 518 _c
148 546 200 560 268 560 _c
}_e{301 560 332 557 362 552 _c
391 547 418 540 443 531 _c
_cl}_e}_d
/t{392 0 27 0 368 702 _sc
183 702 _m
183 547 _l
368 547 _l
368 477 _l
183 477 _l
183 180 _l
183 135 189 106 201 94 _c
213 81 238 75 276 75 _c
368 75 _l
368 0 _l
276 0 _l
206 0 158 13 132 39 _c
106 65 93 112 93 180 _c
93 477 _l
27 477 _l
27 547 _l
93 547 _l
93 702 _l
183 702 _l
_cl}_d
end readonly def

/BuildGlyph
 {exch begin
 CharStrings exch
 2 copy known not{pop /.notdef}if
 true 3 1 roll get exec
 end}_d

/BuildChar {
 1 index /Encoding get exch get
 1 index /BuildGlyph get exec
}_d

FontName currentdict end definefont pop
end
%%EndProlog
mpldict begin
126.9 306 translate
358.2 180 0 0 clipbox
1.000 setlinewidth
1 setlinejoin
2 setlinecap
[] 0 setdash
1.000 setgray
gsave
0 0 m
358.2 0 l
358.2 180 l
0 180 l
cl
gsave
fill
grestore
stroke
grestore
gsave
27.0325 30.25 m
351.036 30.25 l
351.036 167.4 l
27.0325 167.4 l
cl
fill
grestore
0.500 setlinewidth
0.039 0.392 0.039 setrgbcolor
gsave
324 137.2 27.03 30.25 clipbox
148.364 30.25 m
148.364 167.4 l
stroke
grestore
0 setlinecap
0.000 setgray
gsave
/o {
gsave
newpath
translate
0 0 m
0 4 l
stroke
grestore
} bind def
148.364 30.25 o
grestore
gsave
/o {
gsave
newpath
translate
0 0 m
0 -4 l
stroke
grestore
} bind def
148.364 167.4 o
grestore
1.000 setlinewidth
2 setlinecap
0.750 setgray
gsave
131.349 13.6625 m
165.38 13.6625 l
165.38 28.25 l
131.349 28.25 l
cl
gsave
fill
grestore
stroke
grestore
0.980 0.039 0.039 setrgbcolor
/BitstreamVeraSans-Roman findfont
9.000 scalefont
setfont
gsave
148.364390 26.250000 translate
0.000000 rotate

grestore
gsave
133.348765 15.662500 translate
0.000000 rotate
0.000000 0.125000 m /zero glyphshow
5.726074 0.125000 m /period glyphshow
8.586914 0.125000 m /five glyphshow
14.312988 0.125000 m /nine glyphshow
20.039063 0.125000 m /nine glyphshow
25.765137 0.125000 m /two glyphshow
grestore
0.039 0.392 0.039 setrgbcolor
gsave
324 137.2 27.03 30.25 clipbox
27.0325 138.827 m
27.0325 150.256 l
545.438 150.256 l
545.438 138.827 l
27.0325 138.827 l
gsave
0.000 0.500 0.000 setrgbcolor
fill
grestore
stroke
grestore
2.000 setlinewidth
0.039 0.039 0.588 setrgbcolor
gsave
324 137.2 27.03 30.25 clipbox
27.0325 144.542 m
310.536 144.542 l
310.536 144.542 l
stroke
grestore
0.980 0.039 0.039 setrgbcolor
gsave
324 137.2 27.03 30.25 clipbox
27.0325 30.25 m
28.4571 34.2004 l
29.8818 38.0143 l
32.7311 45.2511 l
35.5803 51.9964 l
38.4296 58.2833 l
41.2789 64.1432 l
44.1282 69.605 l
46.9774 74.6958 l
49.8267 79.4407 l
52.676 83.8633 l
55.5253 87.9854 l
58.3745 91.8275 l
61.2238 95.4086 l
64.0731 98.7464 l
68.347 103.333 l
72.6209 107.46 l
76.8948 111.174 l
81.1688 114.515 l
85.4427 117.523 l
89.7166 120.229 l
93.9905 122.664 l
98.2644 124.855 l
102.538 126.826 l
106.812 128.601 l
112.511 130.693 l
118.209 132.511 l
123.908 134.09 l
129.606 135.462 l
136.73 136.926 l
143.853 138.154 l
152.401 139.37 l
160.949 140.354 l
170.921 141.268 l
182.318 142.071 l
195.14 142.741 l
210.811 143.319 l
229.331 143.768 l
253.55 144.116 l
287.741 144.359 l
310.536 144.437 l
310.536 144.437 l
stroke
grestore
1.000 setlinewidth
0.000 setgray
gsave
324 137.2 27.03 30.25 clipbox
27.0325 30.25 m
27.0325 167.4 l
stroke
grestore
gsave
324 137.2 27.03 30.25 clipbox
27.0325 30.25 m
351.036 30.25 l
stroke
grestore
0.500 setlinewidth
0 setlinecap
[1 3] 0 setdash
0.510 setgray
gsave
324 137.2 27.03 30.25 clipbox
27.0325 30.25 m
27.0325 167.4 l
stroke
grestore
[] 0 setdash
0.000 setgray
gsave
/o {
gsave
newpath
translate
0 0 m
0 4 l
stroke
grestore
} bind def
27.0325 30.25 o
grestore
gsave
/o {
gsave
newpath
translate
0 0 m
0 -4 l
stroke
grestore
} bind def
27.0325 167.4 o
grestore
gsave
20.470000 19.437500 translate
0.000000 rotate
0.000000 0.125000 m /zero glyphshow
5.726074 0.125000 m /period glyphshow
8.586914 0.125000 m /zero glyphshow
grestore
[1 3] 0 setdash
0.510 setgray
gsave
324 137.2 27.03 30.25 clipbox
67.5329 30.25 m
67.5329 167.4 l
stroke
grestore
[] 0 setdash
0.000 setgray
gsave
/o {
gsave
newpath
translate
0 0 m
0 4 l
stroke
grestore
} bind def
67.5329 30.25 o
grestore
gsave
/o {
gsave
newpath
translate
0 0 m
0 -4 l
stroke
grestore
} bind def
67.5329 167.4 o
grestore
gsave
61.118875 19.437500 translate
0.000000 rotate
0.000000 0.125000 m /zero glyphshow
5.726074 0.125000 m /period glyphshow
8.586914 0.125000 m /two glyphshow
grestore
[1 3] 0 setdash
0.510 setgray
gsave
324 137.2 27.03 30.25 clipbox
108.033 30.25 m
108.033 167.4 l
stroke
grestore
[] 0 setdash
0.000 setgray
gsave
/o {
gsave
newpath
translate
0 0 m
0 4 l
stroke
grestore
} bind def
108.033 30.25 o
grestore
gsave
/o {
gsave
newpath
translate
0 0 m
0 -4 l
stroke
grestore
} bind def
108.033 167.4 o
grestore
gsave
101.424000 19.437500 translate
0.000000 rotate
0.000000 0.125000 m /zero glyphshow
5.726074 0.125000 m /period glyphshow
8.586914 0.125000 m /four glyphshow
grestore
[1 3] 0 setdash
0.510 setgray
gsave
324 137.2 27.03 30.25 clipbox
148.534 30.25 m
148.534 167.4 l
stroke
grestore
[] 0 setdash
0.000 setgray
gsave
/o {
gsave
newpath
translate
0 0 m
0 4 l
stroke
grestore
} bind def
148.534 30.25 o
grestore
gsave
/o {
gsave
newpath
translate
0 0 m
0 -4 l
stroke
grestore
} bind def
148.534 167.4 o
grestore
gsave
141.955688 19.437500 translate
0.000000 rotate
0.000000 0.125000 m /zero glyphshow
5.726074 0.125000 m /period glyphshow
8.586914 0.125000 m /six glyphshow
grestore
[1 3] 0 setdash
0.510 setgray
gsave
324 137.2 27.03 30.25 clipbox
189.034 30.25 m
189.034 167.4 l
stroke
grestore
[] 0 setdash
0.000 setgray
gsave
/o {
gsave
newpath
translate
0 0 m
0 4 l
stroke
grestore
} bind def
189.034 30.25 o
grestore
gsave
/o {
gsave
newpath
translate
0 0 m
0 -4 l
stroke
grestore
} bind def
189.034 167.4 o
grestore
gsave
182.479563 19.437500 translate
0.000000 rotate
0.000000 0.125000 m /zero glyphshow
5.726074 0.125000 m /period glyphshow
8.586914 0.125000 m /eight glyphshow
grestore
[1 3] 0 setdash
0.510 setgray
gsave
324 137.2 27.03 30.25 clipbox
229.535 30.25 m
229.535 167.4 l
stroke
grestore
[] 0 setdash
0.000 setgray
gsave
/o {
gsave
newpath
translate
0 0 m
0 4 l
stroke
grestore
} bind def
229.535 30.25 o
grestore
gsave
/o {
gsave
newpath
translate
0 0 m
0 -4 l
stroke
grestore
} bind def
229.535 167.4 o
grestore
gsave
223.167500 19.437500 translate
0.000000 rotate
0.000000 0.125000 m /one glyphshow
5.726074 0.125000 m /period glyphshow
8.586914 0.125000 m /zero glyphshow
grestore
[1 3] 0 setdash
0.510 setgray
gsave
324 137.2 27.03 30.25 clipbox
270.035 30.25 m
270.035 167.4 l
stroke
grestore
[] 0 setdash
0.000 setgray
gsave
/o {
gsave
newpath
translate
0 0 m
0 4 l
stroke
grestore
} bind def
270.035 30.25 o
grestore
gsave
/o {
gsave
newpath
translate
0 0 m
0 -4 l
stroke
grestore
} bind def
270.035 167.4 o
grestore
gsave
263.816375 19.562500 translate
0.000000 rotate
0.000000 0.000000 m /one glyphshow
5.726074 0.000000 m /period glyphshow
8.586914 0.000000 m /two glyphshow
grestore
[1 3] 0 setdash
0.510 setgray
gsave
324 137.2 27.03 30.25 clipbox
310.536 30.25 m
310.536 167.4 l
stroke
grestore
[] 0 setdash
0.000 setgray
gsave
/o {
gsave
newpath
translate
0 0 m
0 4 l
stroke
grestore
} bind def
310.536 30.25 o
grestore
gsave
/o {
gsave
newpath
translate
0 0 m
0 -4 l
stroke
grestore
} bind def
310.536 167.4 o
grestore
gsave
304.121500 19.687500 translate
0.000000 rotate
0.000000 0.000000 m /one glyphshow
5.726074 0.000000 m /period glyphshow
8.586914 0.000000 m /four glyphshow
grestore
[1 3] 0 setdash
0.510 setgray
gsave
324 137.2 27.03 30.25 clipbox
351.036 30.25 m
351.036 167.4 l
stroke
grestore
[] 0 setdash
0.000 setgray
gsave
/o {
gsave
newpath
translate
0 0 m
0 4 l
stroke
grestore
} bind def
351.036 30.25 o
grestore
gsave
/o {
gsave
newpath
translate
0 0 m
0 -4 l
stroke
grestore
} bind def
351.036 167.4 o
grestore
gsave
344.653188 19.437500 translate
0.000000 rotate
0.000000 0.125000 m /one glyphshow
5.726074 0.125000 m /period glyphshow
8.586914 0.125000 m /six glyphshow
grestore
/BitstreamVeraSans-Roman findfont
10.000 scalefont
setfont
gsave
179.393625 5.531250 translate
0.000000 rotate
0.000000 1.312500 m /t glyphshow
3.920898 1.312500 m /space glyphshow
7.099609 1.312500 m /parenleft glyphshow
11.000977 1.312500 m /s glyphshow
16.210938 1.312500 m /parenright glyphshow
grestore
[1 3] 0 setdash
0.510 setgray
gsave
324 137.2 27.03 30.25 clipbox
27.0325 30.25 m
351.036 30.25 l
stroke
grestore
[] 0 setdash
0.000 setgray
gsave
/o {
gsave
newpath
translate
0 0 m
4 0 l
stroke
grestore
} bind def
27.0325 30.25 o
grestore
gsave
/o {
gsave
newpath
translate
0 0 m
-4 0 l
stroke
grestore
} bind def
351.036 30.25 o
grestore
/BitstreamVeraSans-Roman findfont
9.000 scalefont
setfont
gsave
9.907500 26.843750 translate
0.000000 rotate
0.000000 0.125000 m /zero glyphshow
5.726074 0.125000 m /period glyphshow
8.586914 0.125000 m /zero glyphshow
grestore
[1 3] 0 setdash
0.510 setgray
gsave
324 137.2 27.03 30.25 clipbox
27.0325 53.1083 m
351.036 53.1083 l
stroke
grestore
[] 0 setdash
0.000 setgray
gsave
/o {
gsave
newpath
translate
0 0 m
4 0 l
stroke
grestore
} bind def
27.0325 53.1083 o
grestore
gsave
/o {
gsave
newpath
translate
0 0 m
-4 0 l
stroke
grestore
} bind def
351.036 53.1083 o
grestore
gsave
10.204375 49.702083 translate
0.000000 rotate
0.000000 0.125000 m /zero glyphshow
5.726074 0.125000 m /period glyphshow
8.586914 0.125000 m /two glyphshow
grestore
[1 3] 0 setdash
0.510 setgray
gsave
324 137.2 27.03 30.25 clipbox
27.0325 75.9667 m
351.036 75.9667 l
stroke
grestore
[] 0 setdash
0.000 setgray
gsave
/o {
gsave
newpath
translate
0 0 m
4 0 l
stroke
grestore
} bind def
27.0325 75.9667 o
grestore
gsave
/o {
gsave
newpath
translate
0 0 m
-4 0 l
stroke
grestore
} bind def
351.036 75.9667 o
grestore
gsave
9.813750 72.560417 translate
0.000000 rotate
0.000000 0.125000 m /zero glyphshow
5.726074 0.125000 m /period glyphshow
8.586914 0.125000 m /four glyphshow
grestore
[1 3] 0 setdash
0.510 setgray
gsave
324 137.2 27.03 30.25 clipbox
27.0325 98.825 m
351.036 98.825 l
stroke
grestore
[] 0 setdash
0.000 setgray
gsave
/o {
gsave
newpath
translate
0 0 m
4 0 l
stroke
grestore
} bind def
27.0325 98.825 o
grestore
gsave
/o {
gsave
newpath
translate
0 0 m
-4 0 l
stroke
grestore
} bind def
351.036 98.825 o
grestore
gsave
9.876250 95.418750 translate
0.000000 rotate
0.000000 0.125000 m /zero glyphshow
5.726074 0.125000 m /period glyphshow
8.586914 0.125000 m /six glyphshow
grestore
[1 3] 0 setdash
0.510 setgray
gsave
324 137.2 27.03 30.25 clipbox
27.0325 121.683 m
351.036 121.683 l
stroke
grestore
[] 0 setdash
0.000 setgray
gsave
/o {
gsave
newpath
translate
0 0 m
4 0 l
stroke
grestore
} bind def
27.0325 121.683 o
grestore
gsave
/o {
gsave
newpath
translate
0 0 m
-4 0 l
stroke
grestore
} bind def
351.036 121.683 o
grestore
gsave
9.923125 118.277083 translate
0.000000 rotate
0.000000 0.125000 m /zero glyphshow
5.726074 0.125000 m /period glyphshow
8.586914 0.125000 m /eight glyphshow
grestore
[1 3] 0 setdash
0.510 setgray
gsave
324 137.2 27.03 30.25 clipbox
27.0325 144.542 m
351.036 144.542 l
stroke
grestore
[] 0 setdash
0.000 setgray
gsave
/o {
gsave
newpath
translate
0 0 m
4 0 l
stroke
grestore
} bind def
27.0325 144.542 o
grestore
gsave
/o {
gsave
newpath
translate
0 0 m
-4 0 l
stroke
grestore
} bind def
351.036 144.542 o
grestore
gsave
10.298125 141.135417 translate
0.000000 rotate
0.000000 0.125000 m /one glyphshow
5.726074 0.125000 m /period glyphshow
8.586914 0.125000 m /zero glyphshow
grestore
[1 3] 0 setdash
0.510 setgray
gsave
324 137.2 27.03 30.25 clipbox
27.0325 167.4 m
351.036 167.4 l
stroke
grestore
[] 0 setdash
0.000 setgray
gsave
/o {
gsave
newpath
translate
0 0 m
4 0 l
stroke
grestore
} bind def
27.0325 167.4 o
grestore
gsave
/o {
gsave
newpath
translate
0 0 m
-4 0 l
stroke
grestore
} bind def
351.036 167.4 o
grestore
gsave
10.595000 164.056250 translate
0.000000 rotate
0.000000 0.000000 m /one glyphshow
5.726074 0.000000 m /period glyphshow
8.586914 0.000000 m /two glyphshow
grestore
1.000 setlinewidth
2 setlinecap
gsave
27.0325 167.4 m
351.036 167.4 l
stroke
grestore
gsave
351.036 30.25 m
351.036 167.4 l
stroke
grestore
gsave
27.0325 30.25 m
351.036 30.25 l
stroke
grestore
gsave
27.0325 30.25 m
27.0325 167.4 l
stroke
grestore

end
showpage
