{
	"version": "0.9.19",
	"allow_edit": true,
	"plugins": [],
	"panes": [
		{
			"title": "BO position, Asservissement en vitesse et courant",
			"width": 1,
			"row": {
				"2": 9,
				"3": 1,
				"4": 1,
				"5": 7
			},
			"col": {
				"2": 2,
				"3": 2,
				"4": 3,
				"5": 3
			},
			"col_width": "2",
			"widgets": [
				{
					"type": "plot",
					"settings": {
						"title": "Vitesse (cm/s) et Position (cm)",
						"xaxis": "datasource_column",
						"time": "if (datasources[\"sp\"][\"Temps\"] != datasources[\"sp\"][\"TCopie\"]) {\n    return -100;\n}\nelse {\n    return datasources[\"sp\"][\"Temps\"];\n}\n",
						"legendX": "Temps (s)",
						"time_window": "4",
						"value": [
							"datasources[\"sp\"][\"Consigne\"]",
							"datasources[\"sp\"][\"v\"]"
						],
						"y_axis_min_range": "-0.1,0.1",
						"offset_y": "mean_value",
						"y2value": [
							"datasources[\"sp\"][\"x\"]"
						],
						"y2_axis_min_range": "-.1,.1",
						"offset_y2": "mean_value",
						"include_legend": true,
						"legendStr": "vref,v,x",
						"height": 4,
						"pausable": true,
						"legendoutside": false,
						"numberofcolumns": 2,
						"refreshperiod": 100,
						"refresh_variable": "loc_duree = datasources[\"loc\"][\"duree\"];\nsp_temps = datasources[\"sp\"][\"Temps\"];\nsp_started = datasources[\"sp\"][\"started\"];\nif ((sp_started == 2) && ((loc_duree > 0) || (loc_duree <= 2000))) {\n    return sp_temps * 1000 / loc_duree;\n}\nelse {\n    return 1;\n}",
						"activation_variable": "sp_started = datasources[\"sp\"][\"started\"];\nif (sp_started > 0) {\n    return 1;\n}\nelse {\n    return 0;\n}\n",
						"deactivate_maxPointsToPlot": "datasources[\"sp\"][\"duree\"]"
					}
				},
				{
					"type": "plot",
					"settings": {
						"title": "Courant (A), Tension de commande (V)",
						"xaxis": "datasource_column",
						"time": "if (datasources[\"sp\"][\"Temps\"] != datasources[\"sp\"][\"TCopie\"]) {\n    return -100;\n}\nelse {\n    return datasources[\"sp\"][\"Temps\"];\n}\n",
						"legendX": "Temps (s)",
						"time_window": "4",
						"value": [
							"datasources[\"sp\"][\"Courantref\"]",
							"datasources[\"sp\"][\"Courantfilt\"]"
						],
						"y_axis_min_range": "-0.5,0.5",
						"offset_y": "mean_value",
						"y2value": [
							"datasources[\"sp\"][\"Commande\"]"
						],
						"y2_axis_min_range": "-1,1",
						"offset_y2": "mean_value",
						"include_legend": true,
						"legendStr": "u",
						"height": 4,
						"pausable": true,
						"legendoutside": false,
						"numberofcolumns": 2,
						"refreshperiod": 100,
						"refresh_variable": "loc_duree = datasources[\"loc\"][\"duree\"];\nsp_temps = datasources[\"sp\"][\"Temps\"];\nsp_started = datasources[\"sp\"][\"started\"];\nif ((sp_started == 2) && ((loc_duree > 0) || (loc_duree <= 2000))) {\n    return sp_temps * 1000 / loc_duree;\n}\nelse {\n    return 1;\n}",
						"activation_variable": "sp_started = datasources[\"sp\"][\"started\"];\nif (sp_started > 0) {\n    return 1;\n}\nelse {\n    return 0;\n}\n",
						"deactivate_maxPointsToPlot": "datasources[\"sp\"][\"duree\"]"
					}
				},
				{
					"type": "closedloop",
					"settings": {
						"title": "Boucle fermée en vitesse",
						"ref": "datasources[\"sp\"][\"Consigne\"]",
						"error": "(datasources[\"sp\"][\"Consigne\"]-datasources[\"sp\"][\"v\"]).toFixed(2)",
						"command": "datasources[\"sp\"][\"Commande\"]",
						"output": "datasources[\"sp\"][\"v\"]"
					}
				}
			]
		},
		{
			"title": "Contrôle de l'application",
			"width": 1,
			"row": {
				"3": 1,
				"4": 1,
				"5": 1
			},
			"col": {
				"3": 1,
				"4": 1,
				"5": 1
			},
			"col_width": 1,
			"widgets": [
				{
					"type": "switchserialport",
					"settings": {
						"title": "Connexion au port série",
						"serialport": "sp",
						"ontext": "ON",
						"offtext": "OFF",
						"initialstate": false,
						"variable1": "datasources[\"sp\"][\"prog\"]",
						"value1": "3",
						"variable2": "datasources[\"loc\"][\"spon\"]",
						"value2": "1",
						"switchoff_variable2": "datasources[\"loc\"][\"spon\"]",
						"switchoff_value2": "0",
						"switch_off_on_disable": false
					}
				},
				{
					"type": "buttonled",
					"settings": {
						"title": "Initialisation de la position en butée à gauche",
						"variable1": "datasources[\"sp\"][\"init\"]",
						"offvalue1": 0,
						"onvalue1": 1,
						"caption1": "Initialiser",
						"value": "sp_fininit = datasources[\"sp\"][\"fininit\"];\nloc_spon = datasources[\"loc\"][\"spon\"];\nif (loc_spon == 0) {\n    return 0;\n}\nelse {\n    if (sp_fininit == 1) {\n        return 1;\n    }\n    else {\n        return 0;\n    }\n}",
						"on_text": "Initialisé",
						"off_text": "Pas encore initialisé",
						"disable_variable": "sp_started = datasources[\"sp\"][\"started\"];\nloc_spon = datasources[\"loc\"][\"spon\"];\nif ((sp_started > 0) || (loc_spon == 0)) {\n    return 1;\n}\n",
						"re_enable_variable": "sp_started = datasources[\"sp\"][\"started\"];\nloc_spon = datasources[\"loc\"][\"spon\"];\nif ((sp_started == 0) && (loc_spon == 1)) {\n    return 1;\n}\n"
					}
				},
				{
					"type": "switchbutton",
					"settings": {
						"title": "Générateur de signal",
						"variable": "datasources[\"sp\"][\"onoff\"]",
						"yestext": "ON",
						"yesvalue": "1",
						"notext": "OFF",
						"novalue": "0",
						"initialstate": false,
						"variablestateoff": "loc_spon = datasources[\"loc\"][\"spon\"];\nloc_duree = datasources[\"loc\"][\"duree\"];\nsp_started = datasources[\"sp\"][\"started\"];\n\nif (datasources[\"sp\"][\"Temps\"] != datasources[\"sp\"][\"TCopie\"]) {\n    sp_temps = -100;\n}\nelse {\n    sp_temps = datasources[\"sp\"][\"Temps\"];\n}\n\nif ((loc_spon == 0) || ((loc_duree > 0) && (sp_temps != -100) && (sp_temps * 1000 >= loc_duree) && (sp_started > 1))) {\n    return 1;\n}\n\n",
						"disable_variable": "sp_started = datasources[\"sp\"][\"started\"];\nloc_spon = datasources[\"loc\"][\"spon\"];\nif ((sp_started == 2) || (loc_spon == 0)) {\n    return 1;\n}\n",
						"re_enable_variable": "sp_started = datasources[\"sp\"][\"started\"];\nloc_spon = datasources[\"loc\"][\"spon\"];\nif ((sp_started != 2) && (loc_spon == 1)) {\n    return 1;\n}\n",
						"switch_off_on_disable": false,
						"text_aside": false,
						"refresh_iframes": false,
						"height": 1
					}
				},
				{
					"type": "textinput",
					"settings": {
						"title": "Durée d'acquisition en secondes (0: infini)",
						"variable": [
							"datasources[\"sp\"][\"duree\"]",
							"datasources[\"loc\"][\"duree\"]"
						],
						"formula": "(1000*x).toFixed(0)",
						"initialvalue": 0,
						"min": 0,
						"max": 2000,
						"resetvalue": 0,
						"resetcaption": "Réinitialisation"
					}
				},
				{
					"type": "plotexplore",
					"settings": {
						"type1": "save",
						"value1": [
							"datasources[\"sp\"][\"Temps\"]",
							"datasources[\"sp\"][\"Consigne\"]",
							"datasources[\"sp\"][\"Commande\"]",
							"datasources[\"sp\"][\"v\"]",
							"datasources[\"sp\"][\"Courantref\"]",
							"datasources[\"sp\"][\"Courantfilt\"]",
							"datasources[\"sp\"][\"x\"]"
						],
						"legends1": "Temps (s),Consigne (cm/s),Commande (V),Vitesse (cm/s),Courant ref. (A),Courant filt. (A),Position (cm)",
						"disablereset1": "if (datasources[\"sp\"][\"started\"] > 0) {\n    return 1;\n}\nelse {\n    return 0;\n}",
						"caption1": "Sauvegarder les résultats",
						"type2": "plot",
						"caption2": "Allumer"
					}
				}
			]
		},
		{
			"title": "Correcteur de vitesse",
			"width": 1,
			"row": {
				"3": 13,
				"4": 1,
				"5": 1
			},
			"col": {
				"3": 1,
				"4": 2,
				"5": 2
			},
			"col_width": 1,
			"widgets": [
				{
					"type": "pidsat",
					"settings": {
						"title": "",
						"possiblechoices": "0,0,0,0,0,0,0,1,0,0,0",
						"initialstate": "7",
						"selectvariable": "datasources[\"sp\"][\"typeAsservissementVitesse\"]",
						"Kpvariable": "datasources[\"sp\"][\"Kpv\"]",
						"Kpformula": "(100*x).toFixed(0)",
						"Kpinitialvalue": 0.1,
						"Kpmin": 0,
						"Kpmax": 0.2,
						"Kpresolution": 2,
						"Kpresetvalue": 0.1,
						"Kpresetcaption": "Réinitialisation",
						"Kivariable": "datasources[\"sp\"][\"Kiv\"]",
						"Kiformula": "(100*x).toFixed(0)",
						"Kiinitialvalue": 0.25,
						"Kimin": 0,
						"Kimax": 2,
						"Kiresolution": 2,
						"Kiresetvalue": 0.25,
						"Kiresetcaption": "Réinitialisation",
						"Kdinitialvalue": 0,
						"Kdmin": 0,
						"Kdmax": 10,
						"Kdresolution": 2,
						"Kdresetvalue": 0,
						"Kdresetcaption": "Réinitialisation",
						"Satvariable": "datasources[\"sp\"][\"imax\"]",
						"unit": "A",
						"Satformula": "(10*x).toFixed(0)",
						"Satinitialvalue": 1.5,
						"Satmin": 0,
						"Satmax": 2.4,
						"Satresolution": 1,
						"Satresetvalue": 1.5,
						"Satresetcaption": "Réinitialisation",
						"hiddenid": 2,
						"toexecute": ""
					}
				}
			]
		},
		{
			"title": "Consigne moteur",
			"width": 1,
			"row": {
				"3": 27,
				"4": 11,
				"5": 9
			},
			"col": {
				"3": 2,
				"4": 2,
				"5": 1
			},
			"col_width": 1,
			"widgets": [
				{
					"type": "signalgeneration",
					"settings": {
						"possiblechoices": "1,1,1,1,1,0",
						"initialstate": "1",
						"selectvariable": "datasources[\"sp\"][\"typeSignal\"]",
						"offsetvariable": "datasources[\"sp\"][\"offset\"]",
						"unit": "cm/s",
						"offsetformula": "(10*x).toFixed(0)",
						"offsetinitialvalue": 0,
						"offsetmin": -50,
						"offsetmax": 50,
						"offsetresolution": 1,
						"offsetresetvalue": 0,
						"offsetresetcaption": "Réinitialisation",
						"amplitudevariable": "datasources[\"sp\"][\"amplitude\"]",
						"unit2": "cm/s",
						"amplitudeformula": "(10*x).toFixed(0)",
						"amplitudeinitialvalue": 0,
						"amplitudemin": 0,
						"amplitudemax": 50,
						"amplitudeplusoffsetmin": -50,
						"amplitudeplusoffsetmax": 50,
						"amplituderesolution": 1,
						"amplituderesetvalue": 0,
						"amplituderesetcaption": "Réinitialisation",
						"frequencyvariable": "datasources[\"sp\"][\"frequence\"]",
						"frequencyformula": "(100*x).toFixed(0)",
						"frequencyinitialvalue": 0,
						"frequencymin": 0,
						"frequencymax": 50,
						"frequencyresolution": 2,
						"frequencyresetvalue": 0,
						"frequencyresetcaption": "Réinitialisation",
						"risingtimevariable": "datasources[\"sp\"][\"tempsmontee\"]",
						"risingtimeformula": "(10*x).toFixed(0)",
						"risingtimeinitialvalue": 1,
						"risingtimemin": 0,
						"risingtimemax": 5,
						"risingtimeresolution": 1,
						"risingtimeresetvalue": 1,
						"risingtimeresetcaption": "Réinitialisation",
						"fallingtimevariable": "datasources[\"sp\"][\"tempsdescente\"]",
						"fallingtimeformula": "(10*x).toFixed(0)",
						"fallingtimeinitialvalue": 1,
						"fallingtimemin": 0,
						"fallingtimemax": 5,
						"fallingtimeresolution": 1,
						"fallingtimeresetvalue": 1,
						"fallingtimeresetcaption": "Réinitialisation",
						"percentagevariable": "datasources[\"sp\"][\"pourcentage\"]",
						"percentageformula": "(10*x).toFixed(0)",
						"percentageinitialvalue": 50,
						"percentagemin": 0,
						"percentagemax": 100,
						"percentageresolution": 1,
						"percentageresetvalue": 50,
						"percentageresetcaption": "Réinitialisation",
						"widthvariable": "datasources[\"sp\"][\"largeur\"]",
						"widthformula": "(10*x).toFixed(0)",
						"widthinitialvalue": 1,
						"widthmin": 0,
						"widthmax": 5,
						"widthresolution": 1,
						"widthresetvalue": 1,
						"widthresetcaption": "Réinitialisation",
						"formulainitialvalue": 0,
						"formulamin": -10,
						"formulamax": 10,
						"formularesetvalue": 0,
						"formularesetcaption": "Réinitialisation",
						"delaytitle": "Delai avant le démarrage (ms)",
						"delayvariable": "datasources[\"sp\"][\"delai\"]",
						"delayinitialvalue": 0,
						"delaymin": 0,
						"delaymax": 2000,
						"delayresetvalue": 0,
						"delayresetcaption": "Réinitialisation"
					}
				}
			]
		},
		{
			"title": "Réglages",
			"width": 1,
			"row": {
				"3": 63,
				"4": 13,
				"5": 19
			},
			"col": {
				"3": 2,
				"4": 1,
				"5": 2
			},
			"col_width": 1,
			"widgets": [
				{
					"type": "switchbutton",
					"settings": {
						"title": "Driver (mettre OFF pour déplacement manuel)",
						"variable": "datasources[\"sp\"][\"onoffDriver\"]",
						"yestext": "ON",
						"yesvalue": "1",
						"notext": "OFF",
						"novalue": "0",
						"initialstate": true
					}
				},
				{
					"type": "slider",
					"settings": {
						"title": "Accélération maximale (cm/s²)",
						"variable": "datasources[\"sp\"][\"accelMax\"]",
						"formula": "(x).toFixed(0)",
						"initialvalue": 10000,
						"min": 0,
						"max": 10000,
						"resolution": 0,
						"resetvalue": 10000,
						"resetcaption": "Réinitialisation"
					}
				}
			]
		},
		{
			"title": "Correcteur de courant",
			"width": 1,
			"row": {
				"3": 27,
				"4": 20,
				"5": 20
			},
			"col": {
				"3": 3,
				"4": 1,
				"5": 1
			},
			"col_width": 1,
			"widgets": [
				{
					"type": "pidsat",
					"settings": {
						"title": "",
						"possiblechoices": "0,0,0,0,0,0,0,1,0,0,1",
						"initialstate": "7",
						"selectvariable": "datasources[\"sp\"][\"typeAsservissementCourant\"]",
						"Kpvariable": "datasources[\"sp\"][\"Kp\"]",
						"Kpformula": "(10*x).toFixed(0)",
						"Kpinitialvalue": 1.5,
						"Kpmin": 0,
						"Kpmax": 5,
						"Kpresolution": 1,
						"Kpresetvalue": 1.5,
						"Kpresetcaption": "Réinitialisation",
						"Kivariable": "datasources[\"sp\"][\"Ki\"]",
						"Kiformula": "x",
						"Kiinitialvalue": 1200,
						"Kimin": 0,
						"Kimax": 5000,
						"Kiresolution": 0,
						"Kiresetvalue": 1200,
						"Kiresetcaption": "Réinitialisation",
						"Kdinitialvalue": 0,
						"Kdmin": 0,
						"Kdmax": 10,
						"Kdresolution": 2,
						"Kdresetvalue": 0,
						"Kdresetcaption": "Réinitialisation",
						"Satvariable": "datasources[\"sp\"][\"umax\"]",
						"unit": "V",
						"Satformula": "(10*x).toFixed(0)",
						"Satinitialvalue": 6,
						"Satmin": 0,
						"Satmax": 6,
						"Satresolution": 1,
						"Satresetvalue": 8,
						"Satresetcaption": "Réinitialisation",
						"hiddenid": 3,
						"toexecute": "localSelect3 = document.getElementById('selectcontrol-3');\n\nlocalKpValue2 = document.getElementById('sliderKp-input-2');\nlocalKiValue2 = document.getElementById('sliderKi-input-2');\nlocalKdValue2 = document.getElementById('sliderKd-input-2');\nlocalSatValue2 = document.getElementById('sliderSat-input-2');\n\nlocalKpHiddenMin2 = document.getElementById('sliderKp-hiddenmin-2');\nlocalKpHiddenMax2 = document.getElementById('sliderKp-hiddenmax-2');\nlocalKpHiddenResolution2 = document.getElementById('sliderKp-hiddenresolution-2');\nlocalKpHiddenReset2 = document.getElementById('sliderKp-hiddenreset-2');\nlocalKpHiddenFormula2 = document.getElementById('sliderKp-hiddenformula-2');\n\nlocalKiHiddenMin2 = document.getElementById('sliderKi-hiddenmin-2');\nlocalKiHiddenMax2 = document.getElementById('sliderKi-hiddenmax-2');\nlocalKiHiddenResolution2 = document.getElementById('sliderKi-hiddenresolution-2');\nlocalKiHiddenReset2 = document.getElementById('sliderKi-hiddenreset-2');\nlocalKiHiddenFormula2 = document.getElementById('sliderKi-hiddenformula-2');\n\nlocalKdHiddenMin2 = document.getElementById('sliderKd-hiddenmin-2');\nlocalKdHiddenMax2 = document.getElementById('sliderKd-hiddenmax-2');\nlocalKdHiddenResolution2 = document.getElementById('sliderKd-hiddenresolution-2');\nlocalKdHiddenReset2 = document.getElementById('sliderKd-hiddenreset-2');\nlocalKdHiddenFormula2 = document.getElementById('sliderKd-hiddenformula-2');\n\nlocalSatHiddenMin2 = document.getElementById('sliderSat-hiddenmin-2');\nlocalSatHiddenMax2 = document.getElementById('sliderSat-hiddenmax-2');\nlocalSatHiddenResolution2 = document.getElementById('sliderSat-hiddenresolution-2');\nlocalSatHiddenReset2 = document.getElementById('sliderSat-hiddenreset-2');\nlocalSatHiddenFormula2 = document.getElementById('sliderSat-hiddenformula-2');\nlocalSatHiddenVariable2 = document.getElementById('sliderSat-hiddenvariable-2');\nlocalSatUnit2 = document.getElementById('sliderSat-unit-2')\n\nlocalSatHiddenVariable3 = document.getElementById('sliderSat-hiddenvariable-3');\n\nif (Number(localSelect3.value) != 10) {\n    localKpValue2.value = 0.1;\n    localKpHiddenMin2.value = 0;\n    localKpHiddenMax2.value = 0.2;\n    localKpHiddenResolution2.value = 2;\n    localKpHiddenReset2.value = 0.1;\n    localKpHiddenFormula2.value = \"(100*x).toFixed(0)\";\n\n    localKiValue2.value = 0.25;\n    localKiHiddenMin2.value = 0;\n    localKiHiddenMax2.value = 2;\n    localKiHiddenResolution2.value = 2;\n    localKiHiddenReset2.value = 0.25;\n    localKiHiddenFormula2.value = \"(100*x).toFixed(0)\";\n\n    localKdValue2.value = 0;\n    localKdHiddenMin2.value = 0;\n    localKdHiddenMax2.value = 0.1;\n    localKdHiddenResolution2.value = 3;\n    localKdHiddenReset2.value = 0;\n    localKdHiddenFormula2.value = \"(1000*x).toFixed(0)\";\n\n    localSatValue2.value = 1.5;\n    localSatHiddenMin2.value = 0;\n    localSatHiddenMax2.value = 2.4;\n    localSatHiddenResolution2.value = 1;\n    localSatHiddenReset2.value = 1.5;\n    localSatHiddenFormula2.value = \"(10*x).toFixed(0)\";\n    localSatHiddenVariable2.value = \"imax\";\n    localSatUnit2.innerHTML = \"Sat: (A)&nbsp;\"\n\n    localSatHiddenVariable3.value = \"umax\";\n    \n    $('#sliderKp-hiddeninput-2').val(1).trigger('change');\n    $('#sliderKi-hiddeninput-2').val(1).trigger('change');\n    $('#sliderKd-hiddeninput-2').val(1).trigger('change');\n    $('#sliderSat-hiddeninput-2').val(1).trigger('change');\n}\nelse if (Number(localSelect3.value) == 10) {\n    localKpValue2.value = 0.1;\n    localKpHiddenMin2.value = 0;\n    localKpHiddenMax2.value = 0.2;\n    localKpHiddenResolution2.value = 2;\n    localKpHiddenReset2.value = 0.1;\n    localKpHiddenFormula2.value = \"(100*x).toFixed(0)\";\n\n    localKiValue2.value = 2;\n    localKiHiddenMin2.value = 0;\n    localKiHiddenMax2.value = 2;\n    localKiHiddenResolution2.value = 2;\n    localKiHiddenReset2.value = 2;\n    localKiHiddenFormula2.value = \"(100*x).toFixed(0)\";\n\n    localKdValue2.value = 0;\n    localKdHiddenMin2.value = 0;\n    localKdHiddenMax2.value = 0.01;\n    localKdHiddenResolution2.value = 3;\n    localKdHiddenReset2.value = 0;\n    localKdHiddenFormula2.value = \"(1000*x).toFixed(0)\";\n\n    localSatValue2.value = 6;\n    localSatHiddenMin2.value = 0;\n    localSatHiddenMax2.value = 6;\n    localSatHiddenResolution2.value = 1;\n    localSatHiddenReset2.value = 6;\n    localSatHiddenFormula2.value = \"(10*x).toFixed(0)\";\n    localSatHiddenVariable2.value = \"umax\";\n    localSatUnit2.innerHTML = \"Sat: (V)&nbsp;\"\n\n    localSatHiddenVariable3.value = \"\";\n    \n    $('#sliderKp-hiddeninput-2').val(1).trigger('change');\n    $('#sliderKi-hiddeninput-2').val(1).trigger('change');\n    $('#sliderKd-hiddeninput-2').val(1).trigger('change');\n    $('#sliderSat-hiddeninput-2').val(1).trigger('change');\n}\n"
					}
				}
			]
		}
	],
	"datasources": [
		{
			"name": "sp",
			"type": "serialport",
			"settings": {
				"use_default_port": true,
				"port": "COM10",
				"baudrate": 57600,
				"variables_to_read": "Temps,TCopie,Consigne,Commande,v,Courantref,Courantfilt,x,fininit,started",
				"variables_to_send": "prog,typeSignal,offset,amplitude,frequence,tempsmontee,tempsdescente,pourcentage,largeur,delai,typeAsservissementCourant,Kp,Ki,umax,typeAsservissementVitesse,Kpv,Kiv,imax,accelMax,onoffDriver,init,onoff,duree",
				"refresh_rate": 20,
				"separator": ",",
				"send_as_string": true,
				"add_newline": true,
				"checksum": "sum",
				"immediate_startup": false,
				"initialchecksum": "none",
				"initialdelay": 2000,
				"name": "sp"
			}
		},
		{
			"name": "loc",
			"type": "local",
			"settings": {
				"variables": "spon,duree",
				"refresh_rate": 100
			}
		}
	],
	"columns": 4
}