<?xml version="1.0" encoding="UTF-8" standalone="no"?>
<!-- Created with Inkscape (http://www.inkscape.org/) -->

<svg
   xmlns:dc="http://purl.org/dc/elements/1.1/"
   xmlns:cc="http://creativecommons.org/ns#"
   xmlns:rdf="http://www.w3.org/1999/02/22-rdf-syntax-ns#"
   xmlns:svg="http://www.w3.org/2000/svg"
   xmlns="http://www.w3.org/2000/svg"
   xmlns:xlink="http://www.w3.org/1999/xlink"
   xmlns:sodipodi="http://sodipodi.sourceforge.net/DTD/sodipodi-0.dtd"
   xmlns:inkscape="http://www.inkscape.org/namespaces/inkscape"
   width="210mm"
   height="297mm"
   viewBox="0 0 744.09448819 1052.3622047"
   id="svg2"
   version="1.1"
   inkscape:version="0.91 r13725"
   inkscape:export-filename="/documents/Dropbox/Lombards/1_annee/08 - Modélisation_AM_et_Statique/Cours/ApplicationPFS/img/pince.png"
   inkscape:export-xdpi="72"
   inkscape:export-ydpi="72"
   sodipodi:docname="pinceCouleur.svg">
  <defs
     id="defs4" />
  <sodipodi:namedview
     id="base"
     pagecolor="#ffffff"
     bordercolor="#666666"
     borderopacity="1.0"
     inkscape:pageopacity="0.0"
     inkscape:pageshadow="2"
     inkscape:zoom="1.2484974"
     inkscape:cx="372.04724"
     inkscape:cy="663.83224"
     inkscape:document-units="px"
     inkscape:current-layer="layer2"
     showgrid="false"
     inkscape:window-width="1400"
     inkscape:window-height="883"
     inkscape:window-x="40"
     inkscape:window-y="0"
     inkscape:window-maximized="1" />
  <metadata
     id="metadata7">
    <rdf:RDF>
      <cc:Work
         rdf:about="">
        <dc:format>image/svg+xml</dc:format>
        <dc:type
           rdf:resource="http://purl.org/dc/dcmitype/StillImage" />
        <dc:title></dc:title>
      </cc:Work>
    </rdf:RDF>
  </metadata>
  <g
     inkscape:groupmode="layer"
     id="layer2"
     inkscape:label="Calque 2"
     style="display:inline">
    <image
       sodipodi:absref="/documents/Dropbox/Lombards/1_annee/08 - Modélisation_AM_et_Statique/Cours/ApplicationPFS/img/pince.png"
       y="219.21933"
       x="31.714294"
       id="image4144"
       xlink:href="file:///documents/Dropbox/Lombards/1_annee/08%20-%20Mod%C3%A9lisation_AM_et_Statique/Cours/ApplicationPFS/img/pinceOrig.png"
       preserveAspectRatio="none"
       height="232"
       width="468" />
  </g>
  <g
     inkscape:label="Calque 1"
     inkscape:groupmode="layer"
     id="layer1">
    <path
       style="fill:#6699ff;fill-rule:evenodd;stroke:none;stroke-width:1px;stroke-linecap:butt;stroke-linejoin:miter;stroke-opacity:1;fill-opacity:0.43478259"
       d="M 276.40234 338.68945 L 267.81641 341.59375 L 262.26172 346.77148 L 257.33594 352.57812 L 252.79102 361.66992 L 250.76953 371.89844 L 251.14844 383.38867 L 222.48633 382.88281 L 204.05078 383.13672 L 191.55078 397.4043 L 191.29688 429.09766 L 191.55078 429.72852 L 247.74023 430.36133 L 478.31445 431.30078 L 478.08203 384.19531 L 326.94336 384.19531 L 325.90039 338.81641 L 276.40234 338.68945 z M 281.01367 360.79297 C 287.63189 360.79297 293.19336 366.86233 293.19336 374.34961 C 293.19336 381.83689 287.63189 387.90625 281.01367 387.90625 C 274.39545 387.90625 269.0293 381.83689 269.0293 374.34961 C 269.0293 366.86233 274.39545 360.79297 281.01367 360.79297 z M 210.80664 394.88281 A 9.2961054 11.614193 0 0 1 220.10352 406.49609 A 9.2961054 11.614193 0 0 1 210.80664 418.11133 A 9.2961054 11.614193 0 0 1 201.51172 406.49609 A 9.2961054 11.614193 0 0 1 210.80664 394.88281 z "
       id="path4147" />
    <path
       style="fill:#99cc33;fill-rule:evenodd;stroke:none;stroke-width:1px;stroke-linecap:butt;stroke-linejoin:miter;stroke-opacity:1;fill-opacity:0.22705314"
       d="m 375.03441,290.75386 -18.88285,22.81678 0,46.6826 18.62059,23.34131 83.39926,0 17.83381,-21.24321 -0.78679,-49.30523 -16.78476,-20.98094 z"
       id="path4164"
       inkscape:connector-curvature="0" />
  </g>
</svg>
